<svg width="23" height="25" viewBox="0 0 23 25" fill="none" xmlns="http://www.w3.org/2000/svg">
<path d="M1.75 21.5417C1.75 22.9625 3.2125 24.125 5 24.125H18C19.7875 24.125 21.25 22.9625 21.25 21.5417V6.04167H1.75V21.5417ZM22.875 2.16667H17.1875L15.5625 0.875H7.4375L5.8125 2.16667H0.125V4.75H22.875V2.16667Z" fill="#2539B0"/>
</svg>
