<svg width="36" height="23" viewBox="0 0 36 23" fill="none" xmlns="http://www.w3.org/2000/svg">
<path d="M18 0.5625C10.0833 0.5625 3.32251 5.09792 0.583344 11.5C3.32251 17.9021 10.0833 22.4375 18 22.4375C25.9167 22.4375 32.6775 17.9021 35.4167 11.5C32.6775 5.09792 25.9167 0.5625 18 0.5625ZM18 18.7917C13.63 18.7917 10.0833 15.525 10.0833 11.5C10.0833 7.475 13.63 4.20833 18 4.20833C22.37 4.20833 25.9167 7.475 25.9167 11.5C25.9167 15.525 22.37 18.7917 18 18.7917ZM18 7.125C15.3717 7.125 13.25 9.07917 13.25 11.5C13.25 13.9208 15.3717 15.875 18 15.875C20.6283 15.875 22.75 13.9208 22.75 11.5C22.75 9.07917 20.6283 7.125 18 7.125Z" fill="#2539B0"/>
</svg>
